{
    "Stories":
    [
        {
            "link": "",
            "author": "QUAN NAM TRƯỜNG ĐỊNH",
            "title": "Bông tuột khỏi tay",
            "date": "2011-12-06",
            "describe": "bongtuotkhoitay",
            "index": 339
        },
        {
            "link": "",
            "author": "HỒ THỊ NGỌC HOÀI",
            "title": "Nỗi riêng Thị Mầu",
            "date": "2014-07-28",
            "describe": "noiriengthimau",
            "index": 338
        },
        {
            "link": "",
            "author": "NGUYỄN TÌNH XUYÊN",
            "title": "Anh chàng gàn",
            "date": "2014-07-23",
            "describe": "anhchanggan",
            "index": 337
        },
        {
            "link": "",
            "author": "PHẠM XUÂN NINH",
            "title": "Mối tình xứ bạch dương",
            "date": "2014-07-21",
            "describe": "moitinhxubachduong",
            "index": 336
        },
        {
            "link": "",
            "author": "HNO19",
            "title": "Chuyện của mẹ",
            "date": "2014-07-18",
            "describe": "chuyencuame",
            "index": 335
        },
        {
            "link": "",
            "author": "THI CẦM",
            "title": "Tiễn đồng Vân",
            "date": "2014-07-09",
            "describe": "tiendongvan",
            "index": 334
        },
        {
            "link": "",
            "author": "HOÀNG LONG",
            "title": "Ảo hóa; Tranh đấu; Ý nghĩa; Giữ gìn",
            "date": "2014-07-07",
            "describe": "aohoatranhdauynghiagiugin",
            "index": 333
        },
        {
            "link": "",
            "author": "HỒ PHƯƠNG",
            "title": "Bạn cũ",
            "date": "2014-06-20",
            "describe": "bancu",
            "index": 332
        },
        {
            "link": "",
            "author": "HÙNG LÝ",
            "title": "Hà Nội",
            "date": "2014-05-22",
            "describe": "hanoi",
            "index": 331
        },
        {
            "link": "",
            "author": "TẠ NGỌC DŨNG",
            "title": "Người không có tên trong danh sách trung đoàn",
            "date": "2014-05-16",
            "describe": "nguoikhongcotentrongdanhsachtrungdoan",
            "index": 330
        },
        {
            "link": "",
            "author": "HUỲNH THANH LẠC",
            "title": "Mưa đầu mùa",
            "date": "2014-05-15",
            "describe": "muadaumua",
            "index": 329
        },
        {
            "link": "",
            "author": "Y NGUYÊN",
            "title": "Ngọt ngào ngày xửa ngày xưa...",
            "date": "2014-05-03",
            "describe": "ngotngaongayxuangayxua",
            "index": 328
        },
        {
            "link": "",
            "author": "PHẠM THUẬN THÀNH",
            "title": "Góp quỹ",
            "date": "2014-04-14",
            "describe": "gopquy",
            "index": 327
        },
        {
            "link": "",
            "author": "TRẦN HUY MINH PHƯƠNG",
            "title": "Lướt sóng",
            "date": "2014-03-29",
            "describe": "luotsong",
            "index": 326
        },
        {
            "link": "",
            "author": "CHU THỊ MINH HUỆ",
            "title": "Răng vàng",
            "date": "2014-03-22",
            "describe": "rangvang",
            "index": 325
        },
        {
            "link": "",
            "author": "HÀ MẠNH LUÂN",
            "title": "Lều vịt ven sông",
            "date": "2014-03-20",
            "describe": "leuvitvensong",
            "index": 324
        },
        {
            "link": "",
            "author": "AN BÌNH MINH",
            "title": "Giang hồ blog",
            "date": "2014-03-04",
            "describe": "gianghoblog",
            "index": 323
        },
        {
            "link": "",
            "author": "NGUYỄN NGỌC TƯ",
            "title": "Chụp ảnh gia đình",
            "date": "2014-02-27",
            "describe": "chupanhgiadinh",
            "index": 322
        },
        {
            "link": "",
            "author": "NGUYỄN BỔNG",
            "title": "Tiếng thời gian",
            "date": "2014-02-24",
            "describe": "tiengthoigian",
            "index": 321
        },
        {
            "link": "",
            "author": "DƯƠNG NGÂN HOA",
            "title": "Mưa ngược sáng",
            "date": "2014-02-20",
            "describe": "muanguocsang",
            "index": 320
        },
        {
            "link": "",
            "author": "NGUYỄN VĂN THỌ",
            "title": "Chợ quê trong phố",
            "date": "2014-02-11",
            "describe": "choquetrongpho",
            "index": 319
        },
        {
            "link": "",
            "author": "HỒ KIÊN GIANG",
            "title": "Mùa quết bánh phồng",
            "date": "2014-02-08",
            "describe": "muaquetbanhphong",
            "index": 318
        },
        {
            "link": "",
            "author": "TỐNG NGỌC HÂN",
            "title": "Không phải là giấc mơ",
            "date": "2014-01-28",
            "describe": "khongphailagiacmo",
            "index": 317
        },
        {
            "link": "",
            "author": "ÁNH HỒNG",
            "title": "Đắng đót vị khoai",
            "date": "2014-01-26",
            "describe": "dangdotvikhoai",
            "index": 316
        },
        {
            "link": "",
            "author": "PHONG HÂN",
            "title": "Lá che phận người",
            "date": "2014-01-24",
            "describe": "lachephannguoi",
            "index": 315
        },
        {
            "link": "",
            "author": "ĐÀO ĐỨC HẠNH",
            "title": "Chiếc vòng bạc",
            "date": "2014-01-22",
            "describe": "chiecvongbac",
            "index": 314
        },
        {
            "link": "",
            "author": "TRẦM NGUYÊN Ý ANH",
            "title": "Bên thềm mùa gió chướng",
            "date": "2014-01-11",
            "describe": "benthemmuagiochuong",
            "index": 313
        },
        {
            "link": "",
            "author": "NGUYỄN CHÍ TRUNG",
            "title": "Trầm tích và cô đơn",
            "date": "2014-01-07",
            "describe": "tramtichvacodon",
            "index": 312
        },
        {
            "link": "",
            "author": "INRASARA",
            "title": "Dáng chăm đội",
            "date": "2014-01-06",
            "describe": "dangchamdoi",
            "index": 311
        },
        {
            "link": "",
            "author": "ĐINH PHƯƠNG",
            "title": "Mê cung",
            "date": "2013-12-09",
            "describe": "mecung",
            "index": 310
        },
        {
            "link": "",
            "author": "Nguyễn Thanh Kim",
            "title": "Khắc khoải tiếng cuốc kêu",
            "date": "2013-12-04",
            "describe": "khackhoaitiengcuockeu",
            "index": 309
        },
        {
            "link": "",
            "author": "ĐÀO QUANG BẮC",
            "title": "Nghe mưa",
            "date": "2013-11-21",
            "describe": "nghemua",
            "index": 308
        },
        {
            "link": "",
            "author": "ĐẶNG ĐÌNH CHẤN",
            "title": "Ký ức về cha",
            "date": "2013-11-11",
            "describe": "kyucvecha",
            "index": 307
        },
        {
            "link": "",
            "author": "Y NGUYÊN",
            "title": "Tát nước gàu dai",
            "date": "2013-10-28",
            "describe": "tatnuocgaudai",
            "index": 306
        },
        {
            "link": "",
            "author": "NGUYỄN HIỆP",
            "title": "Đầu sóng ngọn gió",
            "date": "2013-10-23",
            "describe": "dausongngongio",
            "index": 305
        },
        {
            "link": "",
            "author": "PHẠM PHÚ QUANG",
            "title": "Cái chết của một con chuột",
            "date": "2013-10-16",
            "describe": "caichetcuamotconchuot",
            "index": 304
        },
        {
            "link": "",
            "author": "NGUYỄN HỮU QUÝ",
            "title": "Vị tướng của nhân dân, vị tướng của hòa bình",
            "date": "2013-10-09",
            "describe": "vituongcuanhandanvituongcuahoabinh",
            "index": 303
        },
        {
            "link": "",
            "author": "PHONG HÂN",
            "title": "Bần khô bãi cạn",
            "date": "2013-10-09",
            "describe": "bankhobaican",
            "index": 302
        },
        {
            "link": "",
            "author": "ĐỖ XUÂN THU",
            "title": "Mưa mùa hạ",
            "date": "2013-10-03",
            "describe": "muamuaha",
            "index": 301
        },
        {
            "link": "",
            "author": "NGUYỄN MINH ĐỨC",
            "title": "Xào xạc mùa xây rơm",
            "date": "2013-09-23",
            "describe": "xaoxacmuaxayrom",
            "index": 300
        },
        {
            "link": "",
            "author": "TRẦN THỊ THANH",
            "title": "Nàng",
            "date": "2013-09-20",
            "describe": "nang",
            "index": 299
        },
        {
            "link": "",
            "author": "NGUYỄN TRỌNG LUÂN",
            "title": "Cô Xuân",
            "date": "2013-08-23",
            "describe": "coxuan",
            "index": 298
        },
        {
            "link": "",
            "author": "NGUYỄN HIỆP",
            "title": "Mùa này gió núi",
            "date": "2013-08-12",
            "describe": "muanaygionui",
            "index": 297
        },
        {
            "link": "",
            "author": "THIÊN DI",
            "title": "Quỷ ám",
            "date": "2013-08-10",
            "describe": "quyam",
            "index": 296
        },
        {
            "link": "",
            "author": "TRẦN HUY MINH PHƯƠNG",
            "title": "Nhịp sống",
            "date": "2013-07-20",
            "describe": "nhipsong",
            "index": 295
        },
        {
            "link": "",
            "author": "HỒ VIỆT KHUÊ",
            "title": "Gác rừng",
            "date": "2013-07-14",
            "describe": "gacrung",
            "index": 294
        },
        {
            "link": "",
            "author": "KIỀU BÍCH HẬU",
            "title": "Mùa sen",
            "date": "2013-06-17",
            "describe": "muasen",
            "index": 293
        },
        {
            "link": "",
            "author": "TRẦN NGUYỄN ANH",
            "title": "Nữ thần đồng trinh",
            "date": "2013-06-09",
            "describe": "nuthandongtrinh",
            "index": 292
        },
        {
            "link": "",
            "author": "HOÀNG DZỰ",
            "title": "Cửa hàng chim cảnh",
            "date": "2013-06-07",
            "describe": "cuahangchimcanh",
            "index": 291
        },
        {
            "link": "",
            "author": "TRẦN THỊ THANH",
            "title": "Chiếc điếu cày của cha",
            "date": "2013-05-27",
            "describe": "chiecdieucaycuacha",
            "index": 290
        },
        {
            "link": "",
            "author": "MA VĂN KHÁNG",
            "title": "Vợ chồng Mìn và những đứa con",
            "date": "2013-05-18",
            "describe": "vochongminvanhungduacon",
            "index": 289
        },
        {
            "link": "",
            "author": "ĐỖ BÍCH THÚY",
            "title": "Mẹ kế",
            "date": "2013-04-22",
            "describe": "meke",
            "index": 288
        },
        {
            "link": "",
            "author": "ĐỖ VINH",
            "title": "Loài hoa quý",
            "date": "2013-04-19",
            "describe": "loaihoaquy",
            "index": 287
        },
        {
            "link": "",
            "author": "NGUYỄN XUÂN LƯƠNG",
            "title": "Hai người Hàn Quốc",
            "date": "2013-04-13",
            "describe": "hainguoihanquoc",
            "index": 286
        },
        {
            "link": "",
            "author": "HOÀNG THANH HƯƠNG",
            "title": "Bão trái mùa",
            "date": "2013-04-06",
            "describe": "baotraimua",
            "index": 285
        },
        {
            "link": "",
            "author": "NGUYỄN PHÚ",
            "title": "Thương lắm những mùa khúc nếp",
            "date": "2013-04-01",
            "describe": "thuonglamnhungmuakhucnep",
            "index": 284
        },
        {
            "link": "",
            "author": "NGUYỄN VĂN TRUNG",
            "title": "Trái tim lá",
            "date": "2013-03-29",
            "describe": "traitimla",
            "index": 283
        },
        {
            "link": "",
            "author": "HOÀNG ĐIỆP",
            "title": "Ông Sấm ông Sét",
            "date": "2013-03-27",
            "describe": "ongsamongset",
            "index": 282
        },
        {
            "link": "",
            "author": "PHONG SƯƠNG",
            "title": "Chuyện người tiểu đội trưởng",
            "date": "2013-03-22",
            "describe": "chuyenguoitieudoitruong",
            "index": 281
        },
        {
            "link": "",
            "author": "NGUYỄN NGỌC MINH",
            "title": "Sinh năm 1951",
            "date": "2013-03-19",
            "describe": "sinhnam1951",
            "index": 280
        },
        {
            "link": "",
            "author": "QUẾ HƯƠNG",
            "title": "Đóa hoa không gai và con cừu không rọ mõm",
            "date": "2013-03-17",
            "describe": "doahoakhonggaivaconcuukhongromom",
            "index": 279
        },
        {
            "link": "",
            "author": "NGUYỄN MẠNH HÙNG",
            "title": "Triền sim tím",
            "date": "2013-03-11",
            "describe": "triensimtim",
            "index": 278
        },
        {
            "link": "",
            "author": "DI LI",
            "title": "Cơn mưa qua nhanh",
            "date": "2013-03-09",
            "describe": "conmuaquanhanh",
            "index": 277
        },
        {
            "link": "",
            "author": "INRASANA",
            "title": "Bàn tay vẫy làm người",
            "date": "2013-03-05",
            "describe": "bantayvaylamnguoi",
            "index": 276
        },
        {
            "link": "",
            "author": "PHONG ĐIỆP",
            "title": "Những dấu chấm lặng",
            "date": "2013-03-03",
            "describe": "nhungdauchamlang",
            "index": 275
        },
        {
            "link": "",
            "author": "VĂN CHINH",
            "title": "Varo gái",
            "date": "2013-02-26",
            "describe": "varogai",
            "index": 274
        },
        {
            "link": "",
            "author": "NGUYỄN ĐĂNG AN",
            "title": "Mẹ xóm Đòai",
            "date": "2013-02-22",
            "describe": "mexomdoai",
            "index": 273
        },
        {
            "link": "",
            "author": "KHUẤT QUANG THỤY",
            "title": "Đại bàng và Thỏ trắng",
            "date": "2013-02-18",
            "describe": "daibangvathotrang",
            "index": 272
        },
        {
            "link": "",
            "author": "TRỌNG BẢO",
            "title": "Truyện viễn tưởng",
            "date": "2013-02-16",
            "describe": "truyenvientuong",
            "index": 271
        },
        {
            "link": "",
            "author": "VÕ THỊ XUÂN HÀ",
            "title": "Mỹ nhân làng Nhan",
            "date": "2013-02-14",
            "describe": "mynhanlangnhan",
            "index": 270
        },
        {
            "link": "",
            "author": "HOÀNG PHƯƠNG NHÂM",
            "title": "Quê hương",
            "date": "2013-02-12",
            "describe": "quehuong",
            "index": 269
        },
        {
            "link": "",
            "author": "NGUYỄN HỮU QUÝ",
            "title": "Trước thềm xuân, vừa đi vừa nghĩ",
            "date": "2013-02-09",
            "describe": "truocthemxuanvuadivuanghi",
            "index": 268
        },
        {
            "link": "",
            "author": "PHAN ĐỨC NAM",
            "title": "Ấm áp tình người",
            "date": "2013-02-01",
            "describe": "amaptinhnguoi",
            "index": 267
        },
        {
            "link": "",
            "author": "MAI HƯƠNG",
            "title": "Cường cá kình",
            "date": "2013-01-25",
            "describe": "cuongcakinh",
            "index": 266
        },
        {
            "link": "",
            "author": "THÂN THU PHƯƠNG",
            "title": "Hoa cỏ",
            "date": "2013-01-21",
            "describe": "hoaco",
            "index": 265
        },
        {
            "link": "",
            "author": "KIỀU BÍCH HẬU",
            "title": "Chị Bé và Ki tô",
            "date": "2013-01-19",
            "describe": "chibevakito",
            "index": 264
        },
        {
            "link": "",
            "author": "ĐỖ TRỌNG KHƠI",
            "title": "Bích Câu Quán với nhị vị đệ nhất văn chương",
            "date": "2013-01-17",
            "describe": "bichcauquanvoinhividenhatvanchuong",
            "index": 263
        },
        {
            "link": "",
            "author": "HOÀNG HẢI LÂM",
            "title": "Trăng giẫm gai",
            "date": "2013-01-15",
            "describe": "tranggiamgai",
            "index": 262
        },
        {
            "link": "",
            "author": "TRẦN NGUYỄN ANH",
            "title": "Chiếc tăng đứt xích",
            "date": "2013-01-11",
            "describe": "chiectangdutxich",
            "index": 261
        },
        {
            "link": "",
            "author": "NGUYỄN ĐỨC THIỆN",
            "title": "Văng vẳng nơi xa thẳm",
            "date": "2013-01-09",
            "describe": "vangvangnoixatham",
            "index": 260
        },
        {
            "link": "",
            "author": "CHU LAI",
            "title": "Ở nơi xa Hà Nội",
            "date": "2013-01-07",
            "describe": "onoixahanoi",
            "index": 259
        },
        {
            "link": "",
            "author": "HUỲNH THẠCH THẢO",
            "title": "Biển",
            "date": "2013-01-03",
            "describe": "bien",
            "index": 258
        },
        {
            "link": "",
            "author": "INRASARA",
            "title": "Bản trường ca bỏ hoang",
            "date": "2012-12-29",
            "describe": "bantruongcabohoang",
            "index": 257
        },
        {
            "link": "",
            "author": "TRẦM THANH TUẤN",
            "title": "Chuyện ở một khu chung cư",
            "date": "2012-12-27",
            "describe": "chuyenomotkhuchungcu",
            "index": 256
        },
        {
            "link": "",
            "author": "HOÀNG KIM YẾN",
            "title": "Đồng đội",
            "date": "2012-12-24",
            "describe": "dongdoi",
            "index": 255
        },
        {
            "link": "",
            "author": "NGUYỄN HỮU QUÝ",
            "title": "Hà Nội, lắng vào ta ánh lửa mùa đông",
            "date": "2012-12-18",
            "describe": "hanoilangvaotaanhluamuadong",
            "index": 254
        },
        {
            "link": "",
            "author": "LÊ HÒAI NAM",
            "title": "Tuẫn tiết",
            "date": "2012-12-16",
            "describe": "tuantiet",
            "index": 253
        },
        {
            "link": "",
            "author": "THU HIỀN",
            "title": "Cung đường hạnh phúc",
            "date": "2012-12-14",
            "describe": "cungduonghanhphuc",
            "index": 252
        },
        {
            "link": "",
            "author": "BÙI VĂN HẢI",
            "title": "Quà tặng từ trái tim",
            "date": "2012-12-12",
            "describe": "quatangtutraitim",
            "index": 251
        },
        {
            "link": "",
            "author": "LÊ MINH NHỰT",
            "title": "Tinh sâu róm",
            "date": "2012-12-04",
            "describe": "tinhsaurom",
            "index": 250
        },
        {
            "link": "",
            "author": "LỤC MẠNH CƯỜNG",
            "title": "Dốc đá",
            "date": "2012-12-02",
            "describe": "docda",
            "index": 249
        },
        {
            "link": "",
            "author": "NGUYỄN XUÂN THỦY",
            "title": "Mộ đàn",
            "date": "2012-11-28",
            "describe": "modan",
            "index": 248
        },
        {
            "link": "",
            "author": "VĂN TẤT THẮNG",
            "title": "Ao cổ",
            "date": "2012-11-26",
            "describe": "aoco",
            "index": 247
        },
        {
            "link": "",
            "author": "VĨNH THÔNG",
            "title": "Đón ba về",
            "date": "2012-11-24",
            "describe": "donbave",
            "index": 246
        },
        {
            "link": "",
            "author": "PHƯƠNG QUÝ",
            "title": "Cuối trời lửa đạn",
            "date": "2012-11-13",
            "describe": "cuoitroiluadan",
            "index": 245
        },
        {
            "link": "",
            "author": "NGUYỄN DUY LIỄM",
            "title": "Sóng trong vịnh vắng",
            "date": "2012-11-11",
            "describe": "songtrongvinhtrang",
            "index": 244
        },
        {
            "link": "",
            "author": "N.V.T",
            "title": "Mưa thành phố",
            "date": "2012-11-10",
            "describe": "muathanhpho",
            "index": 243
        },
        {
            "link": "",
            "author": "LƯU QUANG MINH",
            "title": "Con mèo đen",
            "date": "2012-11-04",
            "describe": "conmeoden",
            "index": 242
        },
        {
            "link": "",
            "author": "VŨ THỊ HUẾ",
            "title": "Mua lại ước mơ",
            "date": "2012-10-26",
            "describe": "mualaiuocmo",
            "index": 241
        },
        {
            "link": "",
            "author": "HỒ HUY SƠN",
            "title": "Người lạ trong đám tang",
            "date": "2012-10-26",
            "describe": "nguoilatrongdamtang",
            "index": 240
        },
        {
            "link": "",
            "author": "NGUYỄN ĐỨC THIỆN",
            "title": "Lốc rừng",
            "date": "2012-10-26",
            "describe": "locrung",
            "index": 239
        },
        {
            "link": "",
            "author": "NGUYỄN MẠNH HÙNG",
            "title": "Sen trắng",
            "date": "2012-10-22",
            "describe": "sentrang",
            "index": 238
        },
        {
            "link": "",
            "author": "HÀ THỊ NGỌC LAN",
            "title": "Mùa loa kèn nở",
            "date": "2012-10-20",
            "describe": "mualoakenno",
            "index": 237
        },
        {
            "link": "",
            "author": "NGUYỄN XUÂN HÒA",
            "title": "Xóm trọ ven đô",
            "date": "2012-10-18",
            "describe": "xomtrovendo",
            "index": 236
        },
        {
            "link": "",
            "author": "A KIỀU",
            "title": "Xà chúa",
            "date": "2012-10-18",
            "describe": "xachua",
            "index": 235
        },
        {
            "link": "",
            "author": "QUAN NAM TRƯỜNG ĐỊNH",
            "title": "Nụ cười của nữ Pathet Lào",
            "date": "2012-10-10",
            "describe": "nucuoicuanupathetlao",
            "index": 234
        },
        {
            "link": "",
            "author": "VŨ THỊ HẠNH",
            "title": "Ba thiên thần",
            "date": "2012-10-08",
            "describe": "bathienthan",
            "index": 233
        },
        {
            "link": "",
            "author": "NGUYỄN HIẾU",
            "title": "Chuyện chú Lùn và bảy nàng Bạch Tuyết",
            "date": "2012-10-06",
            "describe": "chuyenchulunvabaynangbachtuyet",
            "index": 232
        },
        {
            "link": "",
            "author": "VĂN THÀNH LÊ",
            "title": "Sẽ trôi về đâu",
            "date": "2012-10-04",
            "describe": "setroivedau",
            "index": 231
        },
        {
            "link": "",
            "author": "VŨ MINH NGUYỆT",
            "title": "Cây và người",
            "date": "2012-10-02",
            "describe": "cayvanguoi",
            "index": 230
        },
        {
            "link": "",
            "author": "VŨ THỊ HUYỀN TRANG",
            "title": "Trốn chồng",
            "date": "2012-09-30",
            "describe": "tronchong",
            "index": 229
        },
        {
            "link": "",
            "author": "ĐỖ ĐỨC ANH",
            "title": "Cô gái màu hồng",
            "date": "2012-09-28",
            "describe": "cogaimauhong",
            "index": 228
        },
        {
            "link": "",
            "author": "THIÊN PHẠM",
            "title": "Người miệt vườn",
            "date": "2012-09-26",
            "describe": "nguoimietvuon",
            "index": 227
        },
        {
            "link": "",
            "author": "NGUYỄN ANH VŨ",
            "title": "Cửa Bắc",
            "date": "2012-09-24",
            "describe": "cuabac",
            "index": 226
        },
        {
            "link": "",
            "author": "SƯƠNG NGUYỆT MINH",
            "title": "Hãy nói theo cách của riêng em!",
            "date": "2012-09-22",
            "describe": "haynoitheocachcuariengem",
            "index": 225
        },
        {
            "link": "",
            "author": "ĐỖ DOÃN QUÁT",
            "title": "Mắt đằng gáy",
            "date": "2012-09-18",
            "describe": "matdanggay",
            "index": 224
        },
        {
            "link": "",
            "author": "NGUYỄN TRỌNG LUÂN",
            "title": "Mùi trâu ám",
            "date": "2012-09-16",
            "describe": "muitrauam",
            "index": 223
        },
        {
            "link": "",
            "author": "VŨ AM",
            "title": "Kiếp nhảy",
            "date": "2012-09-14",
            "describe": "kiepnhay",
            "index": 222
        },
        {
            "link": "",
            "author": "ĐỖ TRỌNG KHƠI",
            "title": "Xưa và nay",
            "date": "2012-09-09",
            "describe": "xuavanay",
            "index": 221
        },
        {
            "link": "",
            "author": "DI LI",
            "title": "Bướm trắng về trú mưa",
            "date": "2012-09-05",
            "describe": "buomtrangvetrumua",
            "index": 220
        },
        {
            "link": "",
            "author": "KIM NGỌC",
            "title": "Rừng ơi",
            "date": "2012-09-01",
            "describe": "rungoi",
            "index": 219
        },
        {
            "link": "",
            "author": "NGUYỄN MỸ NỮ",
            "title": "Lửa chợ",
            "date": "2012-08-30",
            "describe": "luacho",
            "index": 218
        },
        {
            "link": "",
            "author": "PHẠM THỊ ĐIỆP GIANG",
            "title": "Cá hồ Văn",
            "date": "2012-08-28",
            "describe": "cahovan",
            "index": 217
        },
        {
            "link": "",
            "author": "PHAN ĐỨC NAM",
            "title": "Qua cơn binh lửa",
            "date": "2012-08-24",
            "describe": "quaconbinhlua",
            "index": 216
        },
        {
            "link": "",
            "author": "PHÙNG VĂN KHAI",
            "title": "Con đường hoa gạo đỏ",
            "date": "2012-08-22",
            "describe": "conduonghoagaodo",
            "index": 215
        },
        {
            "link": "",
            "author": "NGÔ PHAN LƯU",
            "title": "Thăm thẳm trưa",
            "date": "2012-08-20",
            "describe": "thamthamtrua",
            "index": 214
        },
        {
            "link": "",
            "author": "NGUYỄN PHÚ",
            "title": "Trăng non treo đỉnh núi",
            "date": "2012-08-18",
            "describe": "trangnontreodinhnui",
            "index": 213
        },
        {
            "link": "",
            "author": "TỪ NGUYÊN TĨNH",
            "title": "Trai đò dọc",
            "date": "2012-08-16",
            "describe": "traidodoc",
            "index": 212
        },
        {
            "link": "",
            "author": "TRÌNH QUANG PHÚ",
            "title": "Người con gái Tuy Hòa",
            "date": "2012-08-13",
            "describe": "nguoicongaituyhoa",
            "index": 211
        },
        {
            "link": "",
            "author": "LÊ HÀ NGÂN",
            "title": "Hoa thì là",
            "date": "2012-08-13",
            "describe": "hoathila",
            "index": 210
        },
        {
            "link": "",
            "author": "NGUYỄN THẾ TƯỜNG",
            "title": "Hồi ức của một binh nhì",
            "date": "2012-08-11",
            "describe": "hoiuccuamotbinhnhi",
            "index": 209
        },
        {
            "link": "",
            "author": "NGUYỄN THÁI SƠN",
            "title": "Tứ hổ",
            "date": "2012-08-09",
            "describe": "tuho",
            "index": 208
        },
        {
            "link": "",
            "author": "Y NGUYÊN",
            "title": "Cây trứng cá",
            "date": "2012-08-05",
            "describe": "caytrungca",
            "index": 207
        },
        {
            "link": "",
            "author": "NGUYỄN NGỌC TƯ",
            "title": "Con trai và má…",
            "date": "2012-08-03",
            "describe": "contraivama",
            "index": 206
        },
        {
            "link": "",
            "author": "NGUYỄN HỮU QUÝ",
            "title": "Chị Nghịt",
            "date": "2012-08-01",
            "describe": "chinghit",
            "index": 205
        },
        {
            "link": "",
            "author": "A KIỀU",
            "title": "Máu của đá",
            "date": "2012-07-30",
            "describe": "maucuada",
            "index": 204
        },
        {
            "link": "",
            "author": "NGUYỄN VĂN ĐỊNH",
            "title": "Làm sao hết chiến tranh, làm sao được hòa bình?",
            "date": "2012-07-26",
            "describe": "lamsaohetchientranhlamsaoduochoabinh",
            "index": 203
        },
        {
            "link": "",
            "author": "NGÔ PHAN LƯU",
            "title": "Nhà bếp của chư tiên",
            "date": "2012-07-25",
            "describe": "nhabepcuachutien",
            "index": 202
        },
        {
            "link": "",
            "author": "...",
            "title": "Lạc tiên",
            "date": "2012-07-18",
            "describe": "lactien",
            "index": 201
        },
        {
            "link": "",
            "author": "ĐÕ VINH",
            "title": "Ngồi tựa mạn thuyền đang hát",
            "date": "2012-07-16",
            "describe": "ngoituamanthuyendanghat",
            "index": 200
        },
        {
            "link": "",
            "author": "NGUYỄN THÀNH QUANG",
            "title": "Anh Sáu Râu",
            "date": "2012-07-14",
            "describe": "anhsaurau",
            "index": 199
        },
        {
            "link": "",
            "author": "NGUYỄN NGỌC LỢI",
            "title": "Tình khúc thời chiến",
            "date": "2012-07-12",
            "describe": "tinhkhucthoichien",
            "index": 198
        },
        {
            "link": "",
            "author": "QUAN NAM TRƯỜNG ĐỊNH",
            "title": "Mưa trên mái am Mù",
            "date": "2012-07-10",
            "describe": "muatrenmaiammu",
            "index": 197
        },
        {
            "link": "",
            "author": "HỒ KIÊN GIANG",
            "title": "Suối tóc thời gian",
            "date": "2012-07-07",
            "describe": "suoitocthoigian",
            "index": 196
        },
        {
            "link": "",
            "author": "VÕ THỤY NHƯ PHƯƠNG",
            "title": "Hàng xóm",
            "date": "2012-07-06",
            "describe": "hangxom",
            "index": 195
        },
        {
            "link": "",
            "author": "NGUYỄN HIỆP",
            "title": "Rêu Sọ",
            "date": "2012-07-04",
            "describe": "reuso",
            "index": 194
        },
        {
            "link": "",
            "author": "VƯƠNG TRÍ VĂN",
            "title": "Cánh bướm trong mơ",
            "date": "2012-07-02",
            "describe": "canhbuomtrongmo",
            "index": 193
        },
        {
            "link": "",
            "author": "KIỀU BÍCH HẬU",
            "title": "Nốt cuối của bản nhạc JAZZ",
            "date": "2012-06-29",
            "describe": "notcuoicuabannhacjazz",
            "index": 192
        },
        {
            "link": "",
            "author": "NGUYỄN THÚY HOA",
            "title": "Gia vị tình thương yêu",
            "date": "2012-06-27",
            "describe": "giavitinhthuongyeu",
            "index": 191
        },
        {
            "link": "",
            "author": "NGUYỄN THANH PHONG",
            "title": "Ráng hoàng hôn",
            "date": "2012-06-21",
            "describe": "ranghoanghon",
            "index": 190
        },
        {
            "link": "",
            "author": "NAM NINH",
            "title": "Bảy ngày mở hội",
            "date": "2012-06-19",
            "describe": "bayngaymohoi",
            "index": 189
        },
        {
            "link": "",
            "author": "NGUYỄN THU PHƯƠNG",
            "title": "Miền gió ấm",
            "date": "2012-06-17",
            "describe": "miengioam",
            "index": 188
        },
        {
            "link": "",
            "author": "NGUYỄN MINH CƯỜNG",
            "title": "Trước nhà có một cây sung",
            "date": "2012-06-15",
            "describe": "truocnhacomotcaysung",
            "index": 187
        },
        {
            "link": "",
            "author": "LÊ QUỐC PHONG",
            "title": "Người lính già và chiếc đàn guitar cũ",
            "date": "2012-06-13",
            "describe": "nguoilinhgiavachiecdanguitarcu",
            "index": 186
        },
        {
            "link": "",
            "author": "DI LI",
            "title": "Khách lạ và người lái taxi",
            "date": "2012-06-11",
            "describe": "khachlavanguoilaitaxi",
            "index": 185
        },
        {
            "link": "",
            "author": "NGUYỄN XUÂN THỦY",
            "title": "Búp bê tóc xanh",
            "date": "2012-06-09",
            "describe": "bupbetocxanh",
            "index": 184
        },
        {
            "link": "",
            "author": "LÊ HOÀI LƯƠNG",
            "title": "Ngọn đồi nhiều bướm bay",
            "date": "2012-06-07",
            "describe": "ngondoinnhieubuombay",
            "index": 183
        },
        {
            "link": "",
            "author": "PHÙNG VĂN KHAI",
            "title": "Dưới sắc cờ Hà Nội",
            "date": "2012-06-03",
            "describe": "duoisaccohanoi",
            "index": 182
        },
        {
            "link": "",
            "author": "PHẠM THỊ MINH THƯ",
            "title": "Dị bản",
            "date": "2012-06-01",
            "describe": "diban",
            "index": 181
        },
        {
            "link": "",
            "author": "NGUYỄN HƯƠNG THI",
            "title": "Khi ba không mang dép",
            "date": "2012-05-30",
            "describe": "khibakhongmangdep",
            "index": 180
        },
        {
            "link": "",
            "author": "VŨ AM",
            "title": "Đò ơi!",
            "date": "2012-05-29",
            "describe": "dooi",
            "index": 179
        },
        {
            "link": "",
            "author": "HUỲNH THẠCH THẢO",
            "title": "Những mùa hoa muống biển",
            "date": "2012-05-24",
            "describe": "nhungmuahoamuongbien",
            "index": 178
        },
        {
            "link": "",
            "author": "DOÃN DŨNG",
            "title": "Chuyện vỉa hè",
            "date": "2012-05-20",
            "describe": "chuyenviahe",
            "index": 177
        },
        {
            "link": "",
            "author": "LÊ NGUYÊN NGỮ",
            "title": "Bàn chân tìm nhau",
            "date": "2012-05-18",
            "describe": "banchantimnhau",
            "index": 176
        },
        {
            "link": "",
            "author": "LÊ MẠNH THƯỜNG",
            "title": "Cây nến vàng",
            "date": "2012-05-15",
            "describe": "caynenvang",
            "index": 175
        },
        {
            "link": "",
            "author": "NGUYỄN TRỌNG HÙNG",
            "title": "Gió núi lao xao",
            "date": "2012-05-13",
            "describe": "gionuilaoxao",
            "index": 174
        },
        {
            "link": "",
            "author": "TỐNG PHÚ SA",
            "title": "Cái tình tang",
            "date": "2012-05-11",
            "describe": "caitinhtang",
            "index": 173
        },
        {
            "link": "",
            "author": "NGUYỄN NGỌC TƯ",
            "title": "Bánh trái mùa xưa",
            "date": "2012-05-09",
            "describe": "banhtraimuaxua",
            "index": 172
        },
        {
            "link": "",
            "author": "TRÌNH QUANG PHÚ",
            "title": "Nghĩ về thành phố Tuy Hòa...",
            "date": "2012-05-07",
            "describe": "nghivethanhphotuyhoa",
            "index": 171
        },
        {
            "link": "",
            "author": "NGÔ PHAN LƯU",
            "title": "Vạt áo nàng tiên",
            "date": "2012-05-05",
            "describe": "vataonangtien",
            "index": 170
        },
        {
            "link": "",
            "author": "THỤY ANH",
            "title": "Suối hồng",
            "date": "2012-05-03",
            "describe": "suoihong",
            "index": 169
        },
        {
            "link": "",
            "author": "BÍNH HẠ",
            "title": "Mùa biển động",
            "date": "2012-04-29",
            "describe": "muabiendong",
            "index": 168
        },
        {
            "link": "",
            "author": "NGUYỄN VĂN TRUNG",
            "title": "Người đồng đội thứ mười ba",
            "date": "2012-04-27",
            "describe": "nguoidongdoithumuoiba",
            "index": 167
        },
        {
            "link": "",
            "author": "BÙI THỊ NHƯ LAN",
            "title": "Tiếng kèn pílè",
            "date": "2012-04-25",
            "describe": "tiengkenpile",
            "index": 166
        },
        {
            "link": "",
            "author": "MAI THANH HẢI",
            "title": "Hoa vàng lũng núi",
            "date": "2012-04-23",
            "describe": "hoavanglungnui",
            "index": 165
        },
        {
            "link": "",
            "author": "TRẦN NGUYỄN ANH",
            "title": "Hoa gạo trong thành phố",
            "date": "2012-04-21",
            "describe": "hoagaotrongthanhpho",
            "index": 164
        },
        {
            "link": "",
            "author": "NGUYỄN TRỌNG VĂN",
            "title": "Áo nắng miền Nam",
            "date": "2012-04-19",
            "describe": "aonangmiennam",
            "index": 163
        },
        {
            "link": "",
            "author": "NGUYỄN HIỆP",
            "title": "Bơi trên cát",
            "date": "2012-04-15",
            "describe": "boitrencat",
            "index": 162
        },
        {
            "link": "",
            "author": "ĐỖ VINH",
            "title": "Vườn thuốc nam thay lá",
            "date": "2012-04-11",
            "describe": "vuonthuocnamthayla",
            "index": 161
        },
        {
            "link": "",
            "author": "VŨ THANH LỊCH",
            "title": "Tản mạn quanh bụi chuối quê nhà",
            "date": "2012-04-11",
            "describe": "tanmanquanhbuichuoiquenha",
            "index": 160
        },
        {
            "link": "",
            "author": "...",
            "title": "Ánh hồi quang hiu hắt",
            "date": "2012-04-09",
            "describe": "anhhoiquanghiuhat",
            "index": 159
        },
        {
            "link": "",
            "author": "NGUYỄN THÚY HOA",
            "title": "Hương bưởi",
            "date": "2012-04-08",
            "describe": "huongbuoi",
            "index": 158
        },
        {
            "link": "",
            "author": "KHÁNH CHI",
            "title": "Những cánh lan rừng",
            "date": "2012-04-02",
            "describe": "nhungcanhlanrung",
            "index": 157
        },
        {
            "link": "",
            "author": "HỒ THỊ NGỌC HÒAI",
            "title": "Khúc quê",
            "date": "2012-04-01",
            "describe": "khucque",
            "index": 156
        },
        {
            "link": "",
            "author": "BÙI VĂN HẢI",
            "title": "Tha thứ",
            "date": "2012-03-30",
            "describe": "thathu",
            "index": 155
        },
        {
            "link": "",
            "author": "MAI PHƯƠNG",
            "title": "Dòng sông cuối chân trời",
            "date": "2012-03-28",
            "describe": "dongsongcuoichantroi",
            "index": 154
        },
        {
            "link": "",
            "author": "VÕ THÚY PHƯỢNG",
            "title": "Xòm Ươn",
            "date": "2012-03-26",
            "describe": "xomuon",
            "index": 153
        },
        {
            "link": "",
            "author": "VÕ THỊ HẢO",
            "title": "Quà tặng từ Thượng đế",
            "date": "2012-03-24",
            "describe": "quatangtuthuongde",
            "index": 152
        },
        {
            "link": "",
            "author": "PHẠM TRUNG TUYẾN",
            "title": "Mộc miên",
            "date": "2012-03-22",
            "describe": "chimtapardangodau",
            "index": 151
        },
        {
            "link": "",
            "author": "XUÂN ĐỨC",
            "title": "Chim Ta-par đang ở đâu?",
            "date": "2012-03-19",
            "describe": "chimtapardangodau",
            "index": 150
        },
        {
            "link": "",
            "author": "VŨ MINH NGUYỆT",
            "title": "Có một mùa hoa sắp đi qua",
            "date": "2012-03-12",
            "describe": "comotmuahoasapdiqua",
            "index": 149
        },
        {
            "link": "",
            "author": "VƯƠNG TÂM",
            "title": "Lời thề bị phản bội",
            "date": "2012-03-07",
            "describe": "loithebiphanboi",
            "index": 148
        },
        {
            "link": "",
            "author": "TRẦN THỊ MÂY LAI",
            "title": "Anh tôi và những người cảm tử",
            "date": "2012-03-05",
            "describe": "anhtoivannhungnguoicamtu",
            "index": 147
        },
        {
            "link": "",
            "author": "HUỲNH THẠCH THẢO",
            "title": "Người làng Gió",
            "date": "2012-03-03",
            "describe": "nguoilanggio",
            "index": 146
        },
        {
            "link": "",
            "author": "NGUYỄN NGUYÊN AN",
            "title": "Chậu mai hạnh phúc",
            "date": "2012-03-01",
            "describe": "chaumaihanhphuc",
            "index": 145
        },
        {
            "link": "",
            "author": "UÔNG TRIỀU",
            "title": "Giấc mơ của ông già và cô gái trẻ",
            "date": "2012-02-26",
            "describe": "giacmocuaonggiavacogaitre",
            "index": 144
        },
        {
            "link": "",
            "author": "NGUYỄN ANH THẾ",
            "title": "Con đường bụi đỏ",
            "date": "2012-02-22",
            "describe": "conduongbuido",
            "index": 143
        },
        {
            "link": "",
            "author": "TIỂU ĐẮC NHI",
            "title": "Gió mùa xao xác",
            "date": "2012-02-20",
            "describe": "giomuaxaoxac",
            "index": 142
        },
        {
            "link": "",
            "author": "NGUYỄN NGỌC LỢI",
            "title": "Đêm sông La",
            "date": "2012-02-18",
            "describe": "demsongla",
            "index": 141
        },
        {
            "link": "",
            "author": "UÔNG TRIỀU",
            "title": "Đôi mắt Đông Hoàng",
            "date": "2012-02-16",
            "describe": "doimatdonghoang",
            "index": 140
        },
        {
            "link": "",
            "author": "PHONG HÂN",
            "title": "Nắng vàng hương cũ",
            "date": "2012-02-14",
            "describe": "nangvanghuongcu",
            "index": 139
        },
        {
            "link": "",
            "author": "NGUYỄN HỮU QUÝ",
            "title": "Như muôn cây cỏ mùa xuân",
            "date": "2012-02-10",
            "describe": "nhumuoncaycomuaxuan",
            "index": 138
        },
        {
            "link": "",
            "author": "UÔNG TRIỀU",
            "title": "Đêm Q.M",
            "date": "2012-02-08",
            "describe": "demqm",
            "index": 137
        },
        {
            "link": "",
            "author": "NGUYỄN HỮU QUÝ",
            "title": "Hò quê tôi cũng 'Hỏi xoáy đáp xoay'",
            "date": "2012-02-06",
            "describe": "hoquetoicunghoixoaydapxoay",
            "index": 136
        },
        {
            "link": "",
            "author": "MAI TIẾN NGHỊ",
            "title": "Bà 'chị' đáo để",
            "date": "2012-02-02",
            "describe": "bachidaode",
            "index": 135
        },
        {
            "link": "",
            "author": "NGUYỄN HỮU QUÝ",
            "title": "Vẫn Cà Mau thôi!",
            "date": "2012-01-31",
            "describe": "vancamauthoi",
            "index": 134
        },
        {
            "link": "",
            "author": "TRẦN THÙY MAI",
            "title": "Ấm áp",
            "date": "2012-01-30",
            "describe": "amap",
            "index": 133
        },
        {
            "link": "",
            "author": "PHẠM THÁI QUỲNH",
            "title": "Bán tiếu khuynh thành",
            "date": "2012-01-27",
            "describe": "bantieukhuynhthanh",
            "index": 132
        },
        {
            "link": "",
            "author": "Đ.B.T",
            "title": "Tết nhà nghèo",
            "date": "2012-01-25",
            "describe": "tetnhangheo",
            "index": 131
        },
        {
            "link": "",
            "author": "NGUYỄN HỮU QUÝ",
            "title": "Vui như cái Tết Bính Thìn",
            "date": "2012-01-23",
            "describe": "vuinhucaitetbinhthin",
            "index": 130
        },
        {
            "link": "",
            "author": "KHUẤT QUANG THỤY",
            "title": "Đêm xuân",
            "date": "2012-01-22",
            "describe": "demxuan",
            "index": 129
        },
        {
            "link": "",
            "author": "ĐỖ TRỌNG KHƠI",
            "title": "Một năm lại sắp qua rồi",
            "date": "2012-01-21",
            "describe": "motnamlaisapquaroi",
            "index": 128
        },
        {
            "link": "",
            "author": "NGUYỄN ĐỨC THIỆN",
            "title": "Giá của ngày hôm qua",
            "date": "2012-01-17",
            "describe": "giacuangayhomqua",
            "index": 127
        },
        {
            "link": "",
            "author": "N.Q.T",
            "title": "Mưa đảo",
            "date": "2012-01-15",
            "describe": "muadao",
            "index": 126
        },
        {
            "link": "",
            "author": "ĐỖ BÍCH THÚY",
            "title": "Chiếc hộp khảm trai",
            "date": "2012-01-13",
            "describe": "chiechopkhamtrai",
            "index": 125
        },
        {
            "link": "",
            "author": "HẠT CÁT",
            "title": "Lời của biển",
            "date": "2012-01-09",
            "describe": "loicuabien",
            "index": 124
        },
        {
            "link": "",
            "author": "HUY ĐĂNG",
            "title": "Bố mẹ đồng ý rồi!",
            "date": "2012-01-07",
            "describe": "bomedongyroi",
            "index": 123
        },
        {
            "link": "",
            "author": "VĂN THÀNH LÊ",
            "title": "Bao giờ cho tới ngày mai",
            "date": "2012-01-05",
            "describe": "baogiochotoingaymai",
            "index": 122
        },
        {
            "link": "",
            "author": "HOÀNG TÙNG",
            "title": "Con mèo hoang và những câu chuyện khác...",
            "date": "2012-01-01",
            "describe": "conmeohoangvanhungcauchuyenkhac",
            "index": 121
        },
        {
            "link": "",
            "author": "NGUYỄN TOÀN THẮNG",
            "title": "Người da gấu năm 20xx",
            "date": "2011-12-28",
            "describe": "nguoidagaunam20xx",
            "index": 120
        },
        {
            "link": "",
            "author": "NGUYỄN ĐỨC LỢI",
            "title": "Khát vọng cuộc đời",
            "date": "2011-12-26",
            "describe": "khatvongcuocdoi",
            "index": 119
        },
        {
            "link": "",
            "author": "LƯU THỊ MƯỜI",
            "title": "Bức chân dung Người đàn bà khóc",
            "date": "2011-12-22",
            "describe": "bucchandungnguoidanbakhoc",
            "index": 118
        },
        {
            "link": "",
            "author": "NGUYỄN VĂN THỌ",
            "title": "Tấm chăn màu huyết dụ",
            "date": "2011-12-22",
            "describe": "tamchanmauhuyetdu",
            "index": 117
        },
        {
            "link": "",
            "author": "ĐIỆP BÙI",
            "title": "Trăng sông Lèn",
            "date": "2011-12-16",
            "describe": "trangsonglen",
            "index": 116
        },
        {
            "link": "",
            "author": "VĂN THÀNH LÊ",
            "title": "Người đàn bà hát tình ca trong mưa",
            "date": "2011-12-14",
            "describe": "nguoidanbahattinhcatrongmua",
            "index": 115
        },
        {
            "link": "",
            "author": "LÊ MINH NHỰT",
            "title": "Đồi lá rụng",
            "date": "2011-12-12",
            "describe": "doilarung",
            "index": 114
        },
        {
            "link": "",
            "author": "TỐNG PHÚ SA",
            "title": "Nghĩa địa phố",
            "date": "2011-12-10",
            "describe": "nghiadiapho",
            "index": 113
        },
        {
            "link": "",
            "author": "Quảng Hà",
            "title": "Con bé xa",
            "date": "2011-12-04",
            "describe": "conbexa",
            "index": 112
        },
        {
            "link": "",
            "author": "TRÂM OANH",
            "title": "Bóng tối của ý nghĩ",
            "date": "2011-12-02",
            "describe": "bongtoicuaynghi",
            "index": 111
        },
        {
            "link": "",
            "author": "MAI TIẾN NGHỊ",
            "title": "Mùa cua rận",
            "date": "2011-11-30",
            "describe": "muacuaran",
            "index": 110
        },
        {
            "link": "",
            "author": "HOÀNG PHƯƠNG NHÂM",
            "title": "Búp bê may mắn",
            "date": "2011-11-28",
            "describe": "bupbemayman",
            "index": 109
        },
        {
            "link": "",
            "author": "ĐỖ NHẬT MINH",
            "title": "Gió thổi ngoài bãi sông",
            "date": "2011-11-26",
            "describe": "giothoingoaibaisong",
            "index": 108
        },
        {
            "link": "",
            "author": "NGUYỄN HIẾU",
            "title": "Khi lá mùng tơi rách",
            "date": "2011-11-18",
            "describe": "khilamungtoirach",
            "index": 107
        },
        {
            "link": "",
            "author": "NGUYỄN TRỌNG HÙNG",
            "title": "Không quên nổi những điều chưa kịp nhớ",
            "date": "2011-11-16",
            "describe": "khongquennoinhungdieuchuakipnho",
            "index": 106
        },
        {
            "link": "",
            "author": "PHẠM THUẬN THÀNH",
            "title": "Góc vườn thượng uyển",
            "date": "2011-11-14",
            "describe": "gocvuonthuonguyen",
            "index": 105
        },
        {
            "link": "",
            "author": "NGUYỄN ĐỨC LỢI",
            "title": "Đường mòn",
            "date": "2011-11-10",
            "describe": "duongmon",
            "index": 104
        },
        {
            "link": "",
            "author": "NGUYỄN THỊ KIM HÒA",
            "title": "Ven sông",
            "date": "2011-11-06",
            "describe": "vensong",
            "index": 103
        },
        {
            "link": "",
            "author": "NGUYỄN TOÀN THẮNG",
            "title": "Nhà từ thiện",
            "date": "2011-11-04",
            "describe": "nhatuthien",
            "index": 102
        },
        {
            "link": "",
            "author": "YẾN LINH",
            "title": "Kẻ thứ ba",
            "date": "2011-11-02",
            "describe": "kethuba",
            "index": 101
        },
        {
            "link": "",
            "author": "THANH SƠN",
            "title": "Về lại tình yêu",
            "date": "2011-10-31",
            "describe": "velaitinhyeu",
            "index": 100
        },
        {
            "link": "",
            "author": "HOÀNG PHƯƠNG NHÂM",
            "title": "Trăng quê",
            "date": "2011-10-29",
            "describe": "trangque",
            "index": 99
        },
        {
            "link": "",
            "author": "THANH GIANG",
            "title": "Hồn ma trên sông Sài Gòn",
            "date": "2011-10-25",
            "describe": "honmatrensongsaigon",
            "index": 98
        },
        {
            "link": "",
            "author": "ĐINH THỊ NHƯ THÚY",
            "title": "Vì những ngày dịu dàng khôn tả",
            "date": "2011-10-21",
            "describe": "vinhungngaydiudangkhonta",
            "index": 97
        },
        {
            "link": "",
            "author": "NGUYỄN THU PHƯƠNG",
            "title": "Đường cong",
            "date": "2011-10-19",
            "describe": "duongcuong",
            "index": 96
        },
        {
            "link": "",
            "author": "NGUYÊN TÙNG",
            "title": "Miền cổ tích",
            "date": "2011-10-17",
            "describe": "gianhunguquen",
            "index": 95
        },
        {
            "link": "",
            "author": "NIÊ THANH MAI",
            "title": "Giá như ngủ quên",
            "date": "2011-10-15",
            "describe": "gianhunguquen",
            "index": 94
        },
        {
            "link": "",
            "author": "LƯU QUANG MINH",
            "title": "Ka – ra – ô – kê",
            "date": "2011-10-13",
            "describe": "karaoke",
            "index": 93
        },
        {
            "link": "",
            "author": "NGUYỄN TAM HÀ",
            "title": "Ký ức tím",
            "date": "2011-10-07",
            "describe": "baolang",
            "index": 92
        },
        {
            "link": "",
            "author": "THANH KHÊ",
            "title": "Bão làng",
            "date": "2011-10-05",
            "describe": "baolang",
            "index": 91
        },
        {
            "link": "",
            "author": "TRẦN NGUYỄN ANH",
            "title": "Người phố Hồng Hoang",
            "date": "2011-10-03",
            "describe": "nguoiphohonghoang",
            "index": 90
        },
        {
            "link": "",
            "author": "VÕ DIỆU THANH",
            "title": "Néc – lương chói nắng",
            "date": "2011-09-29",
            "describe": "necluongchoinang",
            "index": 89
        },
        {
            "link": "",
            "author": "BÙI HỮU CƯỜNG",
            "title": "Nhổ tóc sâu",
            "date": "2011-09-25",
            "describe": "nhotocsau",
            "index": 88
        },
        {
            "link": "",
            "author": "ĐỖ VINH",
            "title": "Chuyến xe khách gập ghềnh",
            "date": "2011-09-23",
            "describe": "chuyenxekhachgapghenh",
            "index": 87
        },
        {
            "link": "",
            "author": "DI LI",
            "title": "Đất nước nhảy múa",
            "date": "2011-09-16",
            "describe": "datnuocnhaymua",
            "index": 86
        },
        {
            "link": "",
            "author": "NGUYỄN PHÚ",
            "title": "Sóng Tiền Đường",
            "date": "2011-09-12",
            "describe": "songtienduong",
            "index": 85
        },
        {
            "link": "",
            "author": "NGUYỄN MINH CƯỜNG",
            "title": "Vô thường",
            "date": "2011-09-09",
            "describe": "vothuong",
            "index": 84
        },
        {
            "link": "",
            "author": "MA VĂN KHÁNG",
            "title": "Khôn ngoan cũng thể đàn bà",
            "date": "2011-09-02",
            "describe": "khonngoancungthedanba",
            "index": 83
        },
        {
            "link": "",
            "author": "NHỤY NGUYÊN",
            "title": "Tiếng lục lạc trong ngân",
            "date": "2011-08-31",
            "describe": "tiengluclactrongngan",
            "index": 82
        },
        {
            "link": "",
            "author": "TRẦN QUỲNH NGA",
            "title": "Nỗi nhớ cũng bớt cồn cào",
            "date": "2011-08-28",
            "describe": "noinhocungbotconcao",
            "index": 81
        },
        {
            "link": "",
            "author": "NGUYỄN HIỆP",
            "title": "Giọt mưa phập phồng",
            "date": "2011-08-26",
            "describe": "giotmuaphapphong",
            "index": 80
        },
        {
            "link": "",
            "author": "TẠ DUY ANH",
            "title": "Quyền được khổ",
            "date": "2011-08-24",
            "describe": "quyenduockho",
            "index": 79
        },
        {
            "link": "",
            "author": "TIẾN LUẬN",
            "title": "Chuyện thầy giáo Phúng",
            "date": "2011-08-17",
            "describe": "chuyenthaygiaophung",
            "index": 78
        },
        {
            "link": "",
            "author": "ĐỨC NGUYÊN",
            "title": "Con Tuyết",
            "date": "2011-08-15",
            "describe": "contuyet",
            "index": 77
        },
        {
            "link": "",
            "author": "NGUYỄN PHÚ",
            "title": "Mưa trên đồi hoang",
            "date": "2011-08-12",
            "describe": "muatrendoihoang",
            "index": 76
        },
        {
            "link": "",
            "author": "NGUYỄN QUỐC LIM",
            "title": "Giếng sâu",
            "date": "2011-08-10",
            "describe": "giengsau",
            "index": 75
        },
        {
            "link": "",
            "author": "BÙI VĂN HẢI",
            "title": "Chuyện người thợ làm bánh",
            "date": "2011-08-08",
            "describe": "chuyenguoitholambanh",
            "index": 74
        },
        {
            "link": "",
            "author": "HỒ KIÊN GIANG",
            "title": "Thước phim đời người",
            "date": "2011-08-04",
            "describe": "thuocphimdoinguoi",
            "index": 73
        },
        {
            "link": "",
            "author": "VŨ THỊ HUẾ",
            "title": "Sầu đông",
            "date": "2011-08-02",
            "describe": "saudong",
            "index": 72
        },
        {
            "link": "",
            "author": "VÕ DIỆU THANH",
            "title": "Cú vẫn còn kêu",
            "date": "2011-08-01",
            "describe": "cuvanconkeu",
            "index": 71
        },
        {
            "link": "",
            "author": "LÊ DIỆU HÀ TÂM",
            "title": "Khoảng trống ký ức",
            "date": "2011-07-30",
            "describe": "khoangtrongkyuc",
            "index": 70
        },
        {
            "link": "",
            "author": "NGUYỄN MỸ NỮ",
            "title": "Lửa lò đường và… đom đóm",
            "date": "2011-07-30",
            "describe": "lualoduongvadomdom",
            "index": 69
        },
        {
            "link": "",
            "author": "TRANG HẠ",
            "title": "Xe ôm Sài Gòn",
            "date": "2011-07-29",
            "describe": "xeomsaigon",
            "index": 68
        },
        {
            "link": "",
            "author": "HOÀNG TÙNG",
            "title": "Một cuộc bể dâu",
            "date": "2011-07-28",
            "describe": "motcuocbedau",
            "index": 67
        },
        {
            "link": "",
            "author": "DU AN",
            "title": "Ra phố",
            "date": "2011-07-27",
            "describe": "rapho",
            "index": 66
        },
        {
            "link": "",
            "author": "LÊ MẠNH THƯỜNG",
            "title": "Biển khóc",
            "date": "2011-07-25",
            "describe": "bienkhoc",
            "index": 65
        },
        {
            "link": "",
            "author": "NGÔ PHAN LƯU",
            "title": "Con cá ước mơ",
            "date": "2011-07-09",
            "describe": "concauocmo",
            "index": 64
        },
        {
            "link": "",
            "author": "VĨ THANH",
            "title": "Tản mạn mùa thu",
            "date": "2011-07-08",
            "describe": "tanmanmuathu",
            "index": 63
        },
        {
            "link": "",
            "author": "TRẦN MẠNH HÀ",
            "title": "Sông lạnh",
            "date": "2011-07-08",
            "describe": "songlanh",
            "index": 62
        },
        {
            "link": "",
            "author": "NGUYỄN HIỆP",
            "title": "Sáu ngọn gió",
            "date": "2011-07-08",
            "describe": "saungongio",
            "index": 61
        },
        {
            "link": "",
            "author": "JENY ANH",
            "title": "Phở không người lái",
            "date": "2011-07-08",
            "describe": "phokhongnguoilai",
            "index": 60
        },
        {
            "link": "",
            "author": "HÀ TRUNG HIẾU",
            "title": "Phía sau sự im lặng…",
            "date": "2011-07-08",
            "describe": "phiasausuimlang",
            "index": 59
        },
        {
            "link": "",
            "author": "HỒ KIÊN GIANG",
            "title": "Những giấc mơ biên thùy",
            "date": "2011-07-08",
            "describe": "nhunggiacmobienthuy",
            "index": 58
        },
        {
            "link": "",
            "author": "THIÊN DI",
            "title": "Những đứa con của mẹ",
            "date": "2011-07-08",
            "describe": "nhungduaconcuame",
            "index": 57
        },
        {
            "link": "",
            "author": "NAM PHƯƠNG",
            "title": "Làng ven sông",
            "date": "2011-07-08",
            "describe": "langvensong",
            "index": 56
        },
        {
            "link": "",
            "author": "KIỀU BÍCH HẬU",
            "title": "Gió sông Hàn",
            "date": "2011-07-08",
            "describe": "giosonghan",
            "index": 55
        },
        {
            "link": "",
            "author": "TRẦN MẠNH HÀ",
            "title": "Hắn và tôi",
            "date": "2011-07-08",
            "describe": "hanvatoi",
            "index": 54
        },
        {
            "link": "",
            "author": "PHẠM NGỌC TÚ",
            "title": "Câu…",
            "date": "2011-07-08",
            "describe": "cau",
            "index": 53
        },
        {
            "link": "",
            "author": "NGỮ YÊN",
            "title": "Bản luân vũ cuối cùng",
            "date": "2011-07-07",
            "describe": "banluanvucuoicung",
            "index": 52
        },
        {
            "link": "",
            "author": "NGUYỄN TRUNG",
            "title": "Gã giáo gàn",
            "date": "2011-07-06",
            "describe": "gagiangiao",
            "index": 51
        },
        {
            "link": "vi_000050.txt",
            "author": "VĂN THÀNH LÊ",
            "title": "Mơ về một khúc suối xưa",
            "date": "2011-06-30",
            "describe": "movemotkhucsuoixua",
            "index": 50
        },
        {
            "link": "vi_000049.txt",
            "author": "ĐOÀN ĐẠI TRÍ",
            "title": "Hẻm Sài Gòn",
            "date": "2011-06-30",
            "describe": "hemsaigon",
            "index": 49
        },
        {
            "link": "vi_000048.txt",
            "author": "TẠ DUY ANH",
            "title": "Thi tuyển Khùng",
            "date": "2011-06-30",
            "describe": "thituyenkhung",
            "index": 48
        },
        {
            "link": "vi_000047.txt",
            "author": "NGUYỄN THÁI SƠN",
            "title": "Chuyến xe buýt cuối cùng",
            "date": "2011-06-30",
            "describe": "chuyenxebuytcuoicung",
            "index": 47
        },
        {
            "link": "vi_000046.txt",
            "author": "VŨ TRƯỜNG GIANG",
            "title": "Sa trường",
            "date": "2011-06-28",
            "describe": "satruong",
            "index": 46
        },
        {
            "link": "vi_000045.txt",
            "author": "NGUYỄN THỐNG NHẤT",
            "title": "Bắt vợ",
            "date": "2011-06-27",
            "describe": "batvo",
            "index": 45
        },
        {
            "link": "vi_000044.txt",
            "author": "HỒ KIÊN GIANG",
            "title": "Người con gái trên Đồi Sim",
            "date": "2011-06-24",
            "describe": "nguoicongaitrendoisim",
            "index": 44
        },
        {
            "link": "vi_000043.txt",
            "author": "NGUYỄN ĐỨC LỢI",
            "title": "Con nhà võ",
            "date": "2011-06-24",
            "describe": "connhavo",
            "index": 43
        },
        {
            "link": "vi_000042.txt",
            "author": "LA NGUYỄN QUỐC VINH",
            "title": "Chuyện riêng của má Hai",
            "date": "2011-06-23",
            "describe": "chuyenriengcuamahai",
            "index": 42
        },
        {
            "link": "vi_000041.txt",
            "author": "TRUNG TRUNG ĐỈNH",
            "title": "Trăng trên thung lũng Seo Sảo",
            "date": "2011-06-21",
            "describe": "trangtrenthunglungseosao",
            "index": 41
        },
        {
            "link": "vi_000040.txt",
            "author": "PHẠM THỊ NGỌC ĐIỆP",
            "title": "Gió đưa bông sậy",
            "date": "2011-06-17",
            "describe": "gioduabongsay",
            "index": 40
        },
        {
            "link": "vi_000039.txt",
            "author": "TRẦN QUANG KHANH",
            "title": "Tiếng cú kêu",
            "date": "2011-06-17",
            "describe": "tiengcukeu",
            "index": 39
        },
        {
            "link": "vi_000038.txt",
            "author": "TRẦN ĐỨC TĨNH",
            "title": "Hoa lau trắng",
            "date": "2011-06-17",
            "describe": "hoalautrang",
            "index": 38
        },
        {
            "link": "vi_000037.txt",
            "author": "LƯU QUANG MINH",
            "title": "Đồ chơi",
            "date": "2011-06-16",
            "describe": "dochoi",
            "index": 37
        },
        {
            "link": "vi_000036.txt",
            "author": "NGUYỄN ĐỨC NGUYÊN",
            "title": "Ông Quản",
            "date": "2011-06-15",
            "describe": "ongquan",
            "index": 36
        },
        {
            "link": "vi_000035.txt",
            "author": "HÀ BÙI",
            "title": "Nắng trên hiên nhà",
            "date": "2011-06-14",
            "describe": "nangtrenhiennha",
            "index": 35
        },
        {
            "link": "vi_000034.txt",
            "author": "INRASARA",
            "title": "Ma Hời",
            "date": "2011-06-12",
            "describe": "mahoi",
            "index": 34
        },
        {
            "link": "vi_000033.txt",
            "author": "PHẠM THUẬN THÀNH",
            "title": "Làng Nghĩa Trụ thử hài",
            "date": "2011-06-11",
            "describe": "langnghiatruthutai",
            "index": 33
        },
        {
            "link": "vi_000032.txt",
            "author": "L.N.N",
            "title": "Tấm bằng khen",
            "date": "2011-06-08",
            "describe": "tambangkhen",
            "index": 32
        },
        {
            "link": "vi_000031.txt",
            "author": "NGUYỄN TAM HÀ",
            "title": "Người về",
            "date": "2011-06-07",
            "describe": "nguoive",
            "index": 31
        },
        {
            "link": "vi_000030.txt",
            "author": "LÊ NGUYÊN NGỮ",
            "title": "Những chiều vàng hoe nắng",
            "date": "2011-06-03",
            "describe": "nhungchieuvanghoenang",
            "index": 30
        },
        {
            "link": "vi_000029.txt",
            "author": "NGUYỄN MỸ NỮ",
            "title": "Bạn và thời gian",
            "date": "2011-06-03",
            "describe": "banvathoigian",
            "index": 29
        },
        {
            "link": "vi_000028.txt",
            "author": "THANH GIANG",
            "title": "Bay trên rừng chiến khu",
            "date": "2011-05-31",
            "describe": "baytrenrungchienkhu",
            "index": 28
        },
        {
            "link": "vi_000027.txt",
            "author": "HOÀNG CÔNG DANH",
            "title": "Bức thông điệp của sỏi",
            "date": "2011-05-27",
            "describe": "bucthongdiepcuasoi",
            "index": 27
        },
        {
            "link": "vi_000026.txt",
            "author": "DU AN",
            "title": "Ăn ớt",
            "date": "2011-05-27",
            "describe": "anot",
            "index": 26
        },
        {
            "link": "vi_000025.txt",
            "author": "NGUYỄN PHÚ",
            "title": "Túng Sẻng Phàng",
            "date": "2011-05-27",
            "describe": "tungsengphang",
            "index": 25
        },
        {
            "link": "vi_000024.txt",
            "author": "VÕ DIỆU THANH",
            "title": "Bùa ngải quê nhà",
            "date": "2011-05-25",
            "describe": "buangaiquenha",
            "index": 24
        },
        {
            "link": "vi_000023.txt",
            "author": "TRẦN VŨ MINH",
            "title": "Mê ngộ",
            "date": "2011-05-23",
            "describe": "mengo",
            "index": 23
        },
        {
            "link": "vi_000022.txt",
            "author": "NGUYỄN THỊ NGỌC HÀ",
            "title": "Tấm gỗ sẹo",
            "date": "2011-05-20",
            "describe": "tamgoseo",
            "index": 22
        },
        {
            "link": "vi_000021.txt",
            "author": "NGUYỄN THAM THIỆN KẾ",
            "title": "Trong màu khói vô cùng",
            "date": "2011-05-19",
            "describe": "trongmaukhoivocung",
            "index": 21
        },
        {
            "link": "vi_000020.txt",
            "author": "NGUYỄN QUỐC TRUNG",
            "title": "Đời khất thực",
            "date": "2011-05-19",
            "describe": "doikhuatthuc",
            "index": 20
        },
        {
            "link": "vi_000019.txt",
            "author": "ĐÀO BÁ ĐOÀN",
            "title": "Đoàn tàu xanh",
            "date": "2011-05-18",
            "describe": "doantauxanh",
            "index": 19
        },
        {
            "link": "vi_000018.txt",
            "author": "HỒ ANH THÁI",
            "title": "Diễn",
            "date": "2011-05-16",
            "describe": "dien",
            "index": 18
        },
        {
            "link": "vi_000017.txt",
            "author": "HOÀNG GIA CƯƠNG",
            "title": "Bông hoa rừng ngày ấy",
            "date": "2011-05-13",
            "describe": "bonghoarungngayay",
            "index": 17
        },
        {
            "link": "vi_000016.txt",
            "author": "NGUYỄN VĂN HẠNH",
            "title": "Hoa mạn đà la",
            "date": "2011-05-13",
            "describe": "hoamandala",
            "index": 16
        },
        {
            "link": "vi_000015.txt",
            "author": "ĐỖ VINH",
            "title": "Thăm thẳm mũ tai bèo",
            "date": "2011-05-13",
            "describe": "thamthammutaibeo",
            "index": 15
        },
        {
            "link": "vi_000014.txt",
            "author": "NGUYỄN TRỌNG LUÂN",
            "title": "Nước mắt thép",
            "date": "2011-05-12",
            "describe": "nuocmatthep",
            "index": 14
        },
        {
            "link": "vi_000013.txt",
            "author": "QUAN NAM TRƯỜNG ĐỊNH",
            "title": "Noòng Xiêm",
            "date": "2011-05-09",
            "describe": "noongxiem",
            "index": 13
        },
        {
            "link": "vi_000012.txt",
            "author": "NGUYỄN ANH THẾ",
            "title": "Đêm rơi phía sau lưng",
            "date": "2011-05-06",
            "describe": "demroiphiasaulung",
            "index": 12
        },
        {
            "link": "vi_000011.txt",
            "author": "VŨ QUÝ",
            "title": "Viên chức văn chương",
            "date": "2011-04-01",
            "describe": "vienchucvanchuong",
            "index": 11
        },
        {
            "link": "vi_000010.txt",
            "author": "NGUYỄN TRẦN THIÊN LỘC",
            "title": "Tháp trắng",
            "date": "2011-04-01",
            "describe": "thaptrang",
            "index": 10
        },
        {
            "link": "vi_000009.txt",
            "author": "VÕ DIỆU THANH",
            "title": "Chuyện tình làng Chăm",
            "date": "2011-04-01",
            "describe": "chuyentinhlangcham",
            "index": 9
        },
        {
            "link": "vi_000008.txt",
            "author": "NGUYỄN TÒAN THẮNG",
            "title": "Diva xóm phố",
            "date": "2011-04-01",
            "describe": "divaxompho",
            "index": 8
        },
        {
            "link": "vi_000007.txt",
            "author": "BÙI NHƯ LAN",
            "title": "Cọn nước đôi xòe hoa",
            "date": "2011-04-01",
            "describe": "connuocdoixoehoa",
            "index": 7
        },
        {
            "link": "vi_000006.txt",
            "author": "HOÀNG PHƯƠNG NHÂM",
            "title": "Dạ khúc",
            "date": "2011-04-01",
            "describe": "dakhuc",
            "index": 6
        },
        {
            "link": "vi_000005.txt",
            "author": "NGUYỄN TRUNG",
            "title": "Những người thầy",
            "date": "2011-04-01",
            "describe": "nhungnguoithay",
            "index": 5
        },
        {
            "link": "vi_000004.txt",
            "author": "NGUYỄN THỊ THU HUỆ",
            "title": "Thành phố đi vắng",
            "date": "2011-04-01",
            "describe": "thanhphodivang",
            "index": 4
        },
        {
            "link": "vi_000003.txt",
            "author": "H.T.G",
            "title": "Bến cá",
            "date": "2011-04-01",
            "describe": "benca",
            "index": 3
        },
        {
            "link": "vi_000002.txt",
            "author": "LÊ DIỆU HÀ TÂM",
            "title": "Chứng già",
            "date": "2011-04-01",
            "describe": "chunggia",
            "index": 2
        },
        {
            "link": "vi_000001.txt",
            "author": "BÌNH NGUYÊN TRANG",
            "title": "Hoa gạo cuối trời",
            "date": "2011-04-01",
            "describe": "hoagaocuoitroi",
            "index": 1
        },
        {
            "link": "vi_000000.txt",
            "author": "NGUYỄN ĐỨC LỢI",
            "title": "Văn nghệ sĩ",
            "date": "2011-04-01",
            "describe": "vannghesi",
            "index": 0
        }
    ]
}
