[
  {
    "title": "",
    "link": "/kich-truyen-thanh/loi-sam-hoi-muon-man-2762020-c60-61028.aspx",
    "summary": "Chỉnh đốn xây dựng Đảng là việc làm thường xuyên, liên tục từ khi có Đảng, và chưa bao giờ công tác này được thực hiện quyết liệt và mạnh mẽ như hiện nay. Đã có nhiều cán bộ đảng viên ở nhiều cương vị khác nhau vì không giữ vững bản lĩnh chính trị nên đã chịu kỷ luật của Đảng, sự xử lý của pháp luật. Kỷ luật đảm bảo răn đe, vừa để thức tỉnh, đó là cách làm thể hiện tính nghiêm minh nhưng cũng rất nhân văn của Đảng. Kịch truyền thanh của tác giả Xuân Ninh nhan đề \"Lời sám hối muộn mằn\" đề cập nội dung này. Đây là tác phẩm tham gia Liên hoan Phát thanh toàn quốc lần thứ 14 năm 2020 diễn ra tại Đồng Tháp."
  },
  {
    "title": "Sếp vợ sếp chồng (20/6/2020)",
    "link": "/kich-truyen-thanh/sep-vo-sep-chong-2062020-c60-60828.aspx",
    "summary": "Tác giả:NSUT Trịnh Quang Khanh với sự diễn xuất của các nghệ sỹ Nhà hát kịch Việt Nam."
  },
  {
    "title": "Dòng sông chết (13/6/2020)",
    "link": "/kich-truyen-thanh/dong-song-chet-1362020-c60-60642.aspx",
    "summary": "Tác giả Vũ Thanh Hương, qua sự thể hiện của các nghệ sĩ Nhà hát Kịch Việt Nam."
  },
  {
    "title": "Xin đừng làm khổ nhau (6/6/2020)",
    "link": "/kich-truyen-thanh/xin-dung-lam-kho-nhau-662020-c60-60452.aspx",
    "summary": "Tác giả Nguyễn Toàn Thắng, với sự tham gia diễn xuất của các nghệ sĩ Nhà hát kịch Việt Nam."
  },
  {
    "title": "Khi cơn bão đi qua (30/5/2020)",
    "link": "/kich-truyen-thanh/khi-con-bao-di-qua-3052020-c60-60252.aspx",
    "summary": "Tác giả Trần Anh Đào, với sự tham gia diễn xuất của các nghệ sĩ Nhà hát kịch Việt Nam"
  },
  {
    "title": "Vòng quay nghiệt ngã (23/5/2020)",
    "link": "/kich-truyen-thanh/vong-quay-nghiet-nga-2352020-c60-60072.aspx",
    "summary": "Tác giả Hùng Sơn với sự tham gia của các nghệ sỹ nhà hát kịch."
  },
  {
    "title": "Tình huống bất ngờ (16/5/2020)",
    "link": "/kich-truyen-thanh/tinh-huong-bat-ngo-1652020-c60-59873.aspx",
    "summary": "Tác giả Phạm Khải Hoàn, qua sự diễn xuất của các nghệ sĩ Nhà hát kịch Việt Nam."
  },
  {
    "title": "Hoa hồng bạch (9/5/2020)",
    "link": "/kich-truyen-thanh/hoa-hong-bach-952020-c60-59666.aspx",
    "summary": "Tác giả : Ngô Phương Thảo với sự tham gia của các nghệ sỹ Nhà hát kịch Hà Nội."
  },
  {
    "title": "Mẹ thương con, đừng thương con quá (2/5/2020)",
    "link": "/kich-truyen-thanh/me-thuong-con-dung-thuong-con-qua-252020-c60-59469.aspx",
    "summary": "Vũ Thanh Hương chuyển thể từ truyện ngắn cùng tên của tác giả Nguyễn Thị Thanh Hương, các nghệ sĩ của Nhà hát kịch Việt Nam trình diễn"
  },
  {
    "title": "Đi tìm vàng (25/4/2020)",
    "link": "/kich-truyen-thanh/di-tim-vang-2542020-c60-59266.aspx",
    "summary": "Tác giả kịch bản: Nguyễn Hữu Minh, với sự tham gia diễn xuất của các Nghệ sỹ Nhà hát kịch Việt Nam."
  },
  {
    "title": "Nối lại tình xưa (18/4/2020)",
    "link": "/kich-truyen-thanh/noi-lai-tinh-xua-1842020-c60-59056.aspx",
    "summary": "Tác giả Vân Anh, với sự tham gia diễn xuất của các Nghệ sĩ Nhà hát kịch Việt Nam."
  },
  {
    "title": "Heo trắng, Heo hồng (11/4/2020)",
    "link": "/kich-truyen-thanh/heo-trang-heo-hong-1142020-c60-58801.aspx",
    "summary": "Tác giả Hoàng Nết, do các nghệ sĩ diễn viên Nhà hát kịch Việt Nam thực hiện."
  },
  {
    "title": "Vụ kiện hy hữu (4/4/2020)",
    "link": "/kich-truyen-thanh/vu-kien-hy-huu-442020-c60-58560.aspx",
    "summary": "Tác giả Lê Thanh Tăng, qua sự diễn xuất của các nghệ sĩ Nhà hát kịch Việt Nam."
  },
  {
    "title": "Riêng chung (28/3/2020)",
    "link": "/kich-truyen-thanh/rieng-chung-2832020-c60-58302.aspx",
    "summary": "Tác giả Nguyễn Bá Doanh, với sự tham gia diễn xuất của các nghệ sĩ Nhà hát kịch Việt Nam. Biên tập và dàn dựng chương trình - Xuân Ninh."
  },
  {
    "title": "Giai điệu thức tỉnh (21/3/2020)",
    "link": "/kich-truyen-thanh/giai-dieu-thuc-tinh-2132020-c60-58028.aspx",
    "summary": "Tác giả: Cao Ngọc, Lê Nghiêm với sự tham gia diễn xuất của các nghệ sỹ."
  },
  {
    "title": "Giếng mắt rồng (14/3/2020)",
    "link": "/kich-truyen-thanh/gieng-mat-rong-1432020-c60-57819.aspx",
    "summary": "Vở \"Giếng mắt rồng\" do Ngọc Tiến chuyển thể từ truyện ngắn cùng tên của Nguyễn Hải Yến, với sự tham gia diễn xuất của các nghệ sĩ Nhà hát kịch Việt Nam"
  },
  {
    "title": "Chị tôi đi lấy chồng (7/3/2020)",
    "link": "/kich-truyen-thanh/chi-toi-di-lay-chong-732020-c60-57627.aspx",
    "summary": "Tác giả Ngọc Diệp, với sự tham gia diễn xuất của các nghệ sỹ Nhà hát Kịch Việt Nam."
  },
  {
    "title": "Lời sám hối muộn mằn (29/2/2020)",
    "link": "/kich-truyen-thanh/loi-sam-hoi-muon-man-2922020-c60-57454.aspx",
    "summary": "Tác giả Xuân Ninh, với sự tham gia diễn xuất của các nghệ sỹ: Việt Thắng, Mai Phương, Tạ Minh và Thùy Hương."
  },
  {
    "title": "Người lính già và những điều còn mãi (22/2/2020)",
    "link": "/kich-truyen-thanh/nguoi-linh-gia-va-nhung-dieu-con-mai-2222020-c60-57280.aspx",
    "summary": "Tác giả Xuân Ninh, với sự tham gia diễn xuất của các nghệ sĩ Thùy Hương, Ngọc Trung, Thùy Liên."
  },
  {
    "title": "Tết của bà tôi (15/2/2020)",
    "link": "/kich-truyen-thanh/tet-cua-ba-toi-1522020-c60-57108.aspx",
    "summary": "Vũ Nga chuyển thể từ truyện ngắn \"Ngày 30 tết\" của Nguyễn Thanh Dương. Với sự tham gia diễn xuất của các nghệ sĩ, diễn viên Nhà hát Kịch Việt Nam."
  },
  {
    "title": "Câu chuyện truyền thanh: Con nhà lính (8/2/2020)",
    "link": "/kich-truyen-thanh/cau-chuyen-truyen-thanh-con-nha-linh-822020-c60-56932.aspx",
    "summary": "Tác giả Nghệ sỹ Ưu tú Trịnh Quang Khanh, với sự tham gia diễn xuất của các nghệ sỹ Nhà hát Kịch Việt Nam."
  },
  {
    "title": "Cái chén vỡ và con cá vàng (1/2/2020)",
    "link": "/kich-truyen-thanh/cai-chen-vo-va-con-ca-vang-122020-c60-56750.aspx",
    "summary": "Tác giả Thúy Nga, qua diễn xuất của các nghệ sĩ Nhà hát Kịch Việt Nam."
  },
  {
    "title": "Tên trộm (18/1/2020)",
    "link": "/kich-truyen-thanh/ten-trom-1812020-c60-56466.aspx",
    "summary": "Tác giả Lê Thanh Tăng, qua sự diễn xuất của các nghệ sĩ Nhà hát kịch Việt Nam."
  },
  {
    "title": "Câu chuyện truyền thanh: Đất tốt bỏ hoang (11/1/2020)",
    "link": "/kich-truyen-thanh/cau-chuyen-truyen-thanh-dat-tot-bo-hoang-1112020-c60-56317.aspx",
    "summary": ""
  },
  {
    "title": "Kịch truyền thanh (4/1/2020)",
    "link": "/kich-truyen-thanh/kich-truyen-thanh-412020-c60-56154.aspx",
    "summary": ""
  },
  {
    "title": "Câu chuyện truyền thanh: Lũ lớn không chỉ bởi thiên tai (28/12/2019)",
    "link": "/kich-truyen-thanh/cau-chuyen-truyen-thanh-lu-lon-khong-chi-boi-thien-tai-28122019-c60-56003.aspx",
    "summary": ""
  },
  {
    "title": "Chớ ra khơi khi có bão (22/12/2019)",
    "link": "/kich-truyen-thanh/cho-ra-khoi-khi-co-bao-22122019-c60-55867.aspx",
    "summary": "Vươn khơi bám biển làm giàu cho gia đình, quê hương là nhu cầu, là khát vọng chính đáng của mỗi ngư dân. Tuy nhiên bão tố biển khơi khó lường vì vậy việc đảm bảo an toàn khi ra khơi là quan trọng nhất. Hiện nay ngoài những thông tin do Trung tâm khí tượng thủy văn trung ương cung cấp, thì ngư dân đánh bắt trên biển còn được các lực lượng trên biển trong đó có Bộ đội biên phòng biển hỗ trợ, giúp đỡ, tuyên truyền những vấn đề liên quan đến an toàn khi ra khơi, đặc biệt là khi có bão. Vậy nhưng, vì nhiều lẽ mà đã có những ngư dân bỏ qua cảnh báo của cơ quan chức năng, bất chấp nguy hiểm sẵn sàng ra khơi cả khi có bão, đánh cược cả tính mạng và tài sản của mình vì một chuyến đi biển. Chương trình Kịch truyền thanh hôm nay, mời quý vị và các bạn cùng nghe kịch ngắn: “Chớ ra khơi khi có bão”."
  },
  {
    "title": "Câu chuyện truyền thanh: Chớ ra khơi khi có bão (21/12/2019)",
    "link": "/kich-truyen-thanh/cau-chuyen-truyen-thanh-cho-ra-khoi-khi-co-bao-21122019-c60-55843.aspx",
    "summary": ""
  },
  {
    "title": "Câu chuyện truyền thanh: Cha ruột và cha dượng (14/12/2019)",
    "link": "/kich-truyen-thanh/cau-chuyen-truyen-thanh-cha-ruot-va-cha-duong-14122019-c60-55679.aspx",
    "summary": "Tác giả Trần Minh Tâm, với sự tham gia diễn xuất của các nghệ sỹ Nhà hát Kịch Việt Nam."
  },
  {
    "title": "Vũ Si đa (7/12/2019)",
    "link": "/kich-truyen-thanh/vu-si-da-7122019-c60-55496.aspx",
    "summary": "Tác giả Vũ Bá Doanh, với sự tham gia diễn xuất của các nghệ sĩ Nhà hát kịch Việt Nam."
  },
  {
    "title": "",
    "link": "/kich-truyen-thanh/giai-dieu-thuc-tinh-2132020-c60-58028.aspx",
    "summary": "Tác giả: Cao Ngọc, Lê Nghiêm với sự tham gia diễn xuất của các nghệ sỹ."
  },
  {
    "title": "Giếng mắt rồng (14/3/2020)",
    "link": "/kich-truyen-thanh/gieng-mat-rong-1432020-c60-57819.aspx",
    "summary": "Vở \"Giếng mắt rồng\" do Ngọc Tiến chuyển thể từ truyện ngắn cùng tên của Nguyễn Hải Yến, với sự tham gia diễn xuất của các nghệ sĩ Nhà hát kịch Việt Nam"
  },
  {
    "title": "Chị tôi đi lấy chồng (7/3/2020)",
    "link": "/kich-truyen-thanh/chi-toi-di-lay-chong-732020-c60-57627.aspx",
    "summary": "Tác giả Ngọc Diệp, với sự tham gia diễn xuất của các nghệ sỹ Nhà hát Kịch Việt Nam."
  },
  {
    "title": "Lời sám hối muộn mằn (29/2/2020)",
    "link": "/kich-truyen-thanh/loi-sam-hoi-muon-man-2922020-c60-57454.aspx",
    "summary": "Tác giả Xuân Ninh, với sự tham gia diễn xuất của các nghệ sỹ: Việt Thắng, Mai Phương, Tạ Minh và Thùy Hương."
  },
  {
    "title": "Người lính già và những điều còn mãi (22/2/2020)",
    "link": "/kich-truyen-thanh/nguoi-linh-gia-va-nhung-dieu-con-mai-2222020-c60-57280.aspx",
    "summary": "Tác giả Xuân Ninh, với sự tham gia diễn xuất của các nghệ sĩ Thùy Hương, Ngọc Trung, Thùy Liên."
  },
  {
    "title": "Tết của bà tôi (15/2/2020)",
    "link": "/kich-truyen-thanh/tet-cua-ba-toi-1522020-c60-57108.aspx",
    "summary": "Vũ Nga chuyển thể từ truyện ngắn \"Ngày 30 tết\" của Nguyễn Thanh Dương. Với sự tham gia diễn xuất của các nghệ sĩ, diễn viên Nhà hát Kịch Việt Nam."
  },
  {
    "title": "Câu chuyện truyền thanh: Con nhà lính (8/2/2020)",
    "link": "/kich-truyen-thanh/cau-chuyen-truyen-thanh-con-nha-linh-822020-c60-56932.aspx",
    "summary": "Tác giả Nghệ sỹ Ưu tú Trịnh Quang Khanh, với sự tham gia diễn xuất của các nghệ sỹ Nhà hát Kịch Việt Nam."
  },
  {
    "title": "Cái chén vỡ và con cá vàng (1/2/2020)",
    "link": "/kich-truyen-thanh/cai-chen-vo-va-con-ca-vang-122020-c60-56750.aspx",
    "summary": "Tác giả Thúy Nga, qua diễn xuất của các nghệ sĩ Nhà hát Kịch Việt Nam."
  },
  {
    "title": "Tên trộm (18/1/2020)",
    "link": "/kich-truyen-thanh/ten-trom-1812020-c60-56466.aspx",
    "summary": "Tác giả Lê Thanh Tăng, qua sự diễn xuất của các nghệ sĩ Nhà hát kịch Việt Nam."
  },
  {
    "title": "Câu chuyện truyền thanh: Đất tốt bỏ hoang (11/1/2020)",
    "link": "/kich-truyen-thanh/cau-chuyen-truyen-thanh-dat-tot-bo-hoang-1112020-c60-56317.aspx",
    "summary": ""
  },
  {
    "title": "Kịch truyền thanh (4/1/2020)",
    "link": "/kich-truyen-thanh/kich-truyen-thanh-412020-c60-56154.aspx",
    "summary": ""
  },
  {
    "title": "Câu chuyện truyền thanh: Lũ lớn không chỉ bởi thiên tai (28/12/2019)",
    "link": "/kich-truyen-thanh/cau-chuyen-truyen-thanh-lu-lon-khong-chi-boi-thien-tai-28122019-c60-56003.aspx",
    "summary": ""
  },
  {
    "title": "Chớ ra khơi khi có bão (22/12/2019)",
    "link": "/kich-truyen-thanh/cho-ra-khoi-khi-co-bao-22122019-c60-55867.aspx",
    "summary": "Vươn khơi bám biển làm giàu cho gia đình, quê hương là nhu cầu, là khát vọng chính đáng của mỗi ngư dân. Tuy nhiên bão tố biển khơi khó lường vì vậy việc đảm bảo an toàn khi ra khơi là quan trọng nhất. Hiện nay ngoài những thông tin do Trung tâm khí tượng thủy văn trung ương cung cấp, thì ngư dân đánh bắt trên biển còn được các lực lượng trên biển trong đó có Bộ đội biên phòng biển hỗ trợ, giúp đỡ, tuyên truyền những vấn đề liên quan đến an toàn khi ra khơi, đặc biệt là khi có bão. Vậy nhưng, vì nhiều lẽ mà đã có những ngư dân bỏ qua cảnh báo của cơ quan chức năng, bất chấp nguy hiểm sẵn sàng ra khơi cả khi có bão, đánh cược cả tính mạng và tài sản của mình vì một chuyến đi biển. Chương trình Kịch truyền thanh hôm nay, mời quý vị và các bạn cùng nghe kịch ngắn: “Chớ ra khơi khi có bão”."
  },
  {
    "title": "Câu chuyện truyền thanh: Chớ ra khơi khi có bão (21/12/2019)",
    "link": "/kich-truyen-thanh/cau-chuyen-truyen-thanh-cho-ra-khoi-khi-co-bao-21122019-c60-55843.aspx",
    "summary": ""
  },
  {
    "title": "Câu chuyện truyền thanh: Cha ruột và cha dượng (14/12/2019)",
    "link": "/kich-truyen-thanh/cau-chuyen-truyen-thanh-cha-ruot-va-cha-duong-14122019-c60-55679.aspx",
    "summary": "Tác giả Trần Minh Tâm, với sự tham gia diễn xuất của các nghệ sỹ Nhà hát Kịch Việt Nam."
  },
  {
    "title": "",
    "link": "/kich-truyen-thanh/vu-si-da-7122019-c60-55496.aspx",
    "summary": "Tác giả Vũ Bá Doanh, với sự tham gia diễn xuất của các nghệ sĩ Nhà hát kịch Việt Nam."
  },
  {
    "title": "Viết tiếp bài ca người lính (30/11/2019)",
    "link": "/kich-truyen-thanh/viet-tiep-bai-ca-nguoi-linh-30112019-c60-55349.aspx",
    "summary": "Tác giả Mai Hồng, biên tập và dàn dựng: Xuân Ninh. Với sự tham gia diễn xuất của các nghệ sĩ Đức Nguyên, Tạ Minh, Lưu Hoàng, Thùy Hương và Thu Hường."
  },
  {
    "title": "Câu chuyện truyền thanh: Nâng cánh ước mơ xanh (23/11/2019)",
    "link": "/kich-truyen-thanh/cau-chuyen-truyen-thanh-nang-canh-uoc-mo-xanh-23112019-c60-55203.aspx",
    "summary": "Tác giả Mai Hồng, biên tập và dàn dựng Xuân Ninh."
  },
  {
    "title": "Câu chuyện truyền thanh: Cô giáo Hiền (16/11/2019)",
    "link": "/kich-truyen-thanh/cau-chuyen-truyen-thanh-co-giao-hien-16112019-c60-54050.aspx",
    "summary": "Tác giả An Viết Đàm, với sự tham gia diễn xuất của các nghệ sỹ Nhà hát Kịch Việt Nam."
  },
  {
    "title": "Trở về (9/11/2019)",
    "link": "/kich-truyen-thanh/tro-ve-9112019-c60-53894.aspx",
    "summary": "Tác giả: Vĩnh Quyên."
  },
  {
    "title": "Câu chuyện truyền thanh: Nước mắt chảy xuôi (2/11/2019)",
    "link": "/kich-truyen-thanh/cau-chuyen-truyen-thanh-nuoc-mat-chay-xuoi-2112019-c60-53750.aspx",
    "summary": "Tác giả Lê Thế Song, với sự tham gia diễn xuất của các nghệ sỹ Nhà hát Kịch Việt Nam."
  },
  {
    "title": "Câu chuyện truyền thanh: Mong manh (26/10/2019)",
    "link": "/kich-truyen-thanh/cau-chuyen-truyen-thanh-mong-manh-26102019-c60-53613.aspx",
    "summary": "Biên tập và dàn dựng chương trình Xuân Ninh, với sự tham gia diễn xuất của các nghệ sỹ Nhà hát Kịch Việt Nam."
  },
  {
    "title": "Câu chuyện truyền thanh: Người ngồi trước Tivi (19/10/2019)",
    "link": "/kich-truyen-thanh/cau-chuyen-truyen-thanh-nguoi-ngoi-truoc-tivi-19102019-c60-53457.aspx",
    "summary": "Tác giả Thúy Nga, với sự tham gia diễn xuất của các nghệ sỹ Nhà hát Kịch Việt Nam."
  },
  {
    "title": "Câu chuyện truyền thanh: Vết sẹo năm xưa (12/10/2019)",
    "link": "/kich-truyen-thanh/cau-chuyen-truyen-thanh-vet-seo-nam-xua-12102019-c60-53294.aspx",
    "summary": "Đức Cương chuyển thể từ chuyện ngắn Khúc biến tấu của Bá Dũng."
  },
  {
    "title": "Câu chuyện truyền thanh: Gặp lại người xưa (5/10/2019)",
    "link": "/kich-truyen-thanh/cau-chuyen-truyen-thanh-gap-lai-nguoi-xua-5102019-c60-53133.aspx",
    "summary": ""
  },
  {
    "title": "Tự nguyện (28/9/2019)",
    "link": "/kich-truyen-thanh/tu-nguyen-2892019-c60-52974.aspx",
    "summary": "Tác giả Xuân Ninh."
  },
  {
    "title": "Câu chuyện truyền thanh: Miền thương nhớ (21/9/2019)",
    "link": "/kich-truyen-thanh/cau-chuyen-truyen-thanh-mien-thuong-nho-2192019-c60-52811.aspx",
    "summary": "Tác giả Phạm Mai, với sự tham gia diễn xuất của các nghệ sỹ Nhà hát Kịch Việt Nam."
  },
  {
    "title": "Kịch truyền thanh: \"Ảnh Bác\" (14/9/2019)",
    "link": "/kich-truyen-thanh/kich-truyen-thanh-anh-bac-1492019-c60-52656.aspx",
    "summary": "Xuân Ngọc viết phỏng theo hồi ký \"Người là niềm tin\" do Hồng Phú sưu tầm."
  },
  {
    "title": "Chuyện trong gia đình nhỏ (7/9/2019)",
    "link": "/kich-truyen-thanh/chuyen-trong-gia-dinh-nho-792019-c60-52495.aspx",
    "summary": "Tác giả Nguyễn Thị Lương, với sự tham gia diễn xuất của các nghệ sĩ Nhà hát Kịch Việt Nam."
  },
  {
    "title": "Câu chuyện truyền thanh: Người lính già và những điều còn mãi (31/8/2019)",
    "link": "/kich-truyen-thanh/cau-chuyen-truyen-thanh-nguoi-linh-gia-va-nhung-dieu-con-mai-3182019-c60-52346.aspx",
    "summary": "Tác giả Xuân Ninh, với sự tham gia diễn xuất của các nghệ sỹ Thùy Hương, Ngọc Trung, Thùy Liên."
  },
  {
    "title": "",
    "link": "/kich-truyen-thanh/kich-truyen-thanh-ban-dong-hanh-2482019-c60-52190.aspx",
    "summary": "Với sự tham gia diễn xuất của các diễn viên Nhà hát kịch Việt Nam."
  },
  {
    "title": "Câu chuyện truyền thanh: Vào đời (17/8/2019)",
    "link": "/kich-truyen-thanh/cau-chuyen-truyen-thanh-vao-doi-1782019-c60-52037.aspx",
    "summary": "Tác giả Hoàng Hằng, với sự tham gia diễn xuất của các nghệ sỹ Nhà hát Kịch Việt Nam."
  },
  {
    "title": "Kịch truyền thanh: Đợi (10/8/2019)",
    "link": "/kich-truyen-thanh/kich-truyen-thanh-doi-1082019-c60-51893.aspx",
    "summary": "Tác giả Duy Khoa chuyển thể dựa theo truyện ngắn “Ngày không vô định” của nhà văn Trí Hạ, qua diễn xuất của các nghệ sĩ Nhà hát kịch Việt Nam."
  },
  {
    "title": "Câu chuyện truyền thanh: Chị tôi đi lấy chồng (3/8/2019)",
    "link": "/kich-truyen-thanh/cau-chuyen-truyen-thanh-chi-toi-di-lay-chong-382019-c60-51736.aspx",
    "summary": "Tác giả Ngọc Diệp, với sự tham gia diễn xuất của các nghệ sỹ Nhà hát Kịch Việt Nam."
  },
  {
    "title": "Câu chuyện truyền thanh: Viết tiếp bài ca người lính (27/7/2019)",
    "link": "/kich-truyen-thanh/cau-chuyen-truyen-thanh-viet-tiep-bai-ca-nguoi-linh-2772019-c60-51581.aspx",
    "summary": "Tác giả Mai Hồng, với sự tham gia diễn xuất của các nghệ sĩ: Đức Nguyên, Tạ Minh, Đức Hoàng, Thùy Hương và thu Hường."
  },
  {
    "title": "Gặp lại người xưa (20/7/2019)",
    "link": "/kich-truyen-thanh/gap-lai-nguoi-xua-2072019-c60-51422.aspx",
    "summary": "Tác giả Hoàng Nét với sự diễn xuất của các nghệ sỹ Nhà hát kịch Việt Nam."
  },
  {
    "title": "Con nhà lính biển (13/7/2019)",
    "link": "/kich-truyen-thanh/con-nha-linh-bien-1372019-c60-51263.aspx",
    "summary": "Tác giả Mỹ Dung với sự diễn xuất của các nghệ sỹ Nhà Hát kịch Việt Nam."
  },
  {
    "title": "Cơn sốt (6/7/2019)",
    "link": "/kich-truyen-thanh/con-sot-672019-c60-51109.aspx",
    "summary": "Tác giả Lê Thanh Tâm, qua diễn xuất của các nghệ sĩ Nhà hát Kịch Việt Nam."
  },
  {
    "title": "Niềm vui bất ngờ (22/6/2019)",
    "link": "/kich-truyen-thanh/niem-vui-bat-ngo-2262019-c60-50784.aspx",
    "summary": "Tác giả Nguyễn Bá Doanh, với sự tham gia diễn xuất của các nghệ sĩ Nhà hát kịch Việt Nam."
  },
  {
    "title": "Kịch ngắn: “Vội” (1/6/2019)",
    "link": "/kich-truyen-thanh/kich-ngan-voi-162019-c60-50762.aspx",
    "summary": "Ngày xưa người Việt Nam có câu: “Đi đâu mà vội mà vàng, không vấp phải đá cũng quàng phải dây”, nhưng trước tình trạng mất an toàn giao thông nghiêm trọng như hiện nay, thì “vội” có thể khiến người ta mất mạng. Vì vậy người Việt ngày nay nhắc nhau: “Đừng nhanh một phút mà chậm cả đời”. Đây cũng là thông điệp mà tác giả Xuân Ninh gửi đến quý vị và các bạn trong kịch ngắn “Vội” ngay sau đây. Kịch được thu bằng điện thoại thông minh với sự tham gia diễn xuất của các diễn viên không chuyên: Bé Ngân Giang 7 tuổi trong vai Hoa, bé Hoàng Phương 11 tuổi trong vai An, cô Hạnh bán tạp hóa trong vai Lan, tác giả trong vai Bình, cùng các phóng viên: Thanh Phượng, Hà Nho, Thu Hiền, kỹ thuật viên:Vĩnh Tiến, Kim Hà và phát thanh viên Hải Yến trong các nhân vật khác."
  },
  {
    "title": "Mở lòng (15/6/2019)",
    "link": "/kich-truyen-thanh/mo-long-1562019-c60-50625.aspx",
    "summary": "Tác giả Trọng Khoa, với sự tham gia diễn xuất của các nghệ sĩ Nhà hát kịch Việt Nam."
  },
  {
    "title": "Câu chuyện truyền thanh: Trượt dốc (8/6/2019)",
    "link": "/kich-truyen-thanh/cau-chuyen-truyen-thanh-truot-doc-862019-c60-50464.aspx",
    "summary": "Tác giả Vũ Thanh Hương, với sự tham gia diễn xuất của các nghệ sỹ nhà hát kịch Thủ đô."
  },
  {
    "title": "Con nuôi người điên (1/6/2019)",
    "link": "/kich-truyen-thanh/con-nuoi-nguoi-dien-162019-c60-50327.aspx",
    "summary": "Tác giả Vũ Quang Vinh."
  },
  {
    "title": "Mong manh (25/5/2019)",
    "link": "/kich-truyen-thanh/mong-manh-2552019-c60-50178.aspx",
    "summary": "Tác giả Xuân Ninh, với sự tham gia diễn xuất của các nghệ sĩ Nhà hát Kịch Việt Nam."
  },
  {
    "title": "Ảnh Bác (18/5/2019)",
    "link": "/kich-truyen-thanh/anh-bac-1852019-c60-50024.aspx",
    "summary": "Xuân Ngọc viết lại từ hồi ký Người là niềm tin của tác giả Hồng Phú."
  }
]
